<?xml version="1.0" encoding="utf-8"?>
<!-- Generator: Adobe Illustrator 16.0.0, SVG Export Plug-In . SVG Version: 6.00 Build 0)  -->
<!DOCTYPE svg PUBLIC "-//W3C//DTD SVG 1.1//EN" "http://www.w3.org/Graphics/SVG/1.1/DTD/svg11.dtd">
<svg version="1.1" id="Layer_1" xmlns="http://www.w3.org/2000/svg" xmlns:xlink="http://www.w3.org/1999/xlink" x="0px" y="0px"
	 width="841.889px" height="595.281px" viewBox="0 0 841.889 595.281" enable-background="new 0 0 841.889 595.281"
	 xml:space="preserve">
<g>
	<path fill="#231F20" d="M326.583,188.873l12.793,11.321c0.622,0.579,1.076,0.914,2.034,1.611l7.086,6.447
		c4.195,3.918,5.854,4.244,7.192,4.244h104.6c2.767,0,4.404-1.788,5.206-2.672l5.375-4.6c0.875-0.666,1.58-1.357,2.284-2.064
		l0.132-0.134c0.395-0.398,0.8-0.812,1.602-1.415l13.225-11.672c0.484-0.339,0.938-0.668,1.579-1.276
		c0.316-0.302,0.669-0.667,1.05-1.068l0.171-0.183c0.296-0.323,0.525-0.568,0.691-0.771c1.406-0.462,2.525-1.538,3.027-2.924
		c0.557-1.5,0.339-3.179-0.59-4.492c-1.768-2.489-6.654-7.431-9.137-9.252l-0.933-0.755c-0.404-0.349-0.814-0.694-1.358-1.101
		c-11.606-8.687-23.62-13.092-35.705-13.092c-10.035,0-15.787,1.854-23.499,5.505c-1.537,0.727-2.937,1.481-4.291,2.213
		c-1.209,0.656-2.462,1.337-3.783,1.953c-3.433,1.626-5.645,2.289-7.638,2.289c-2.599,0-4.896-1.142-9.07-3.333
		c-1.652-0.868-3.71-1.946-6.103-3.077c-5.675-2.685-12.494-5.55-21.628-5.55c-11.001,0-20.165,2.434-29.723,7.884
		c-6.179,3.53-14.915,10.349-18.936,16.034c-1.176,1.669-1.182,3.915-0.011,5.593C323.33,186.102,325.827,188.322,326.583,188.873z
		 M370.896,164.728c7.131,0,12.546,2.28,17.478,4.615c2.225,1.053,4.098,2.033,5.753,2.9c4.704,2.47,8.688,4.356,13.538,4.356
		c3.539,0,7.288-0.994,11.8-3.124c1.499-0.698,2.902-1.457,4.279-2.202c1.138-0.619,2.426-1.323,3.81-1.977
		c6.682-3.16,11.061-4.569,19.354-4.569c10.09,0,19.869,3.648,29.86,11.131l1.09,0.895c0.387,0.324,0.775,0.65,1.27,1.009
		c0.843,0.62,2.421,2.085,3.996,3.695l-0.606,0.562c-0.315,0.223-0.649,0.462-1.199,0.926l-12.501,11.116
		c-1.01,0.731-1.779,1.491-2.658,2.379c-0.384,0.384-0.743,0.745-1.373,1.23l-5.589,4.777c-0.116,0.102-0.237,0.213-0.377,0.349
		H357.062c-0.69-0.542-1.6-1.312-1.994-1.68l-7.203-6.556c-0.507-0.439-0.897-0.728-1.214-0.941l-13.83-12.16
		c3.493-3.525,8.872-7.678,13.158-10.126C353.989,166.766,361.672,164.728,370.896,164.728z"/>
	<path fill="#231F20" d="M502.582,259.185c-3.99-7.528-8.355-14.201-13.733-21c-2.296-2.896-3.889-4.562-5.51-6.259
		c-0.812-0.859-1.647-1.736-2.614-2.83c-5.55-6.274-9.751-9.323-12.84-9.323H348.088c-3.004,0-5.371,2.116-7.66,4.162
		c-0.079,0.067-0.853,0.766-0.926,0.844l-8.531,8.841l-1.87,2.155c-5.55,6.498-11.239,14.966-15.609,23.229
		c-4.181,7.908-7.553,16.445-9.748,24.687c-5.306,19.972-5.75,41.832-1.251,61.553c1.591,6.972,3.365,11.558,8.641,17.271
		l0.705,0.788c0.693,0.785,1.348,1.526,2.878,2.812l7.267,4.908c4.45,2.243,11.646,4.919,20.633,4.919h131.054
		c7.078,0,15.353-2.117,21.074-5.395c5.807-3.319,9.446-6.672,13.432-12.375c1.552-2.231,3.624-6.305,4.406-9.255
		C520.325,319.82,516.493,285.436,502.582,259.185z M473.669,366.248H342.615c-7.37,0-13.08-2.276-15.718-3.57l-6.256-4.229
		c-0.67-0.586-1.072-1.041-1.544-1.579l-0.823-0.92c-3.857-4.184-5.068-7.352-6.326-12.868c-4.157-18.22-3.741-38.429,1.167-56.898
		c2.014-7.544,5.108-15.374,8.955-22.648c3.984-7.543,9.371-15.569,14.377-21.435l9.715-10.285c0.011-0.011,0.72-0.646,0.725-0.646
		c0,0,0,0-0.004,0.004c0.908-0.807,1.447-1.321,1.761-1.699l118.219-0.13c1.123,0.638,4.43,3.726,6.599,6.178
		c1.071,1.211,1.992,2.183,2.887,3.124l0.142,0.15c1.445,1.517,2.812,2.952,4.75,5.404c5.017,6.347,9.072,12.553,12.769,19.531
		c12.821,24.173,16.346,55.862,9.193,82.702c-0.456,1.733-1.976,4.744-2.98,6.182c-3.146,4.51-5.74,6.91-10.288,9.512
		C486.336,364.179,479.913,366.248,473.669,366.248z"/>
	<path fill="#231F20" d="M464.114,276.668c-1.688,0.433-2.577,1.251-3.201,2.039l-3.809,1.861c-1.288,0.37-4.001,0.882-5.727,0.884
		c-2.449-0.127-5.083-0.78-7.715-1.523c1.172-0.881,2.303-1.975,3.471-3.345c1-1.196,2.035-2.435,3.065-3.909
		c0.678-0.965,1.212-1.828,1.75-2.712l0.877-1.416c0.531-0.832,8.504-15.229,8.615-19.65c0.023-1.306-0.534-2.521-1.527-3.338
		c-0.966-0.79-2.208-1.133-3.575-0.858c-1.761,0.393-3.407,1.013-5.316,1.731c-3.58,1.357-20.645,8.195-26.407,17.305
		c-1.807-5.734-3.473-11.155-0.593-16.326l0.5-0.79c0.149-0.227,0.274-0.457,0.397-0.686l0.094-0.171
		c1.263-0.893,2.089-2.072,2.521-3.6c0.392-1.367-0.17-2.82-1.569-4.086c-1.082-0.996-3.165-1.254-4.702-0.648
		c-0.861,0.333-1.593,0.847-2.296,1.612c-2.256,1.446-4.745,4.35-8.254,8.849c-1.178,1.507-2.699,3.811-4.146,6.27
		c-0.756-0.268-1.504-0.329-2.232-0.177c-1.361,0.291-2.076,0.874-2.909,1.665c-3.807,2.441-9.15,9.67-10.244,11.396l-1.656,2.512
		c-0.415,0.66-0.903,1.482-1.414,2.389c-1.031-0.366-2.312-0.373-3.34,0.019c-0.82,0.322-1.594,0.867-2.298,1.617
		c-6.757,4.236-15.481,19.531-17.299,25.643c-0.681,2.273-2.661,10.185,0.434,16.459c0.836,1.703,1.984,3.163,3.342,4.339
		c-0.361-0.014-0.721-0.001-1.079,0.079c-2.407,0.52-3.37,1.529-4.665,3.127l-0.572,0.697c-1.486,1.777-3.381,3.925-5.332,6.133
		c-2.804,3.183-5.703,6.471-7.59,8.886c-1.679,2.15-1.899,5.04-0.589,7.735c1.291,2.64,4.273,5.312,7.477,5.312
		c2.773,0,4.007-0.734,5.979-2.288c1.72-1.347,3.763-3.008,5.948-4.794c3.146-2.57,6.401-5.229,8.788-6.961
		c1.396-1.01,3.996-2.89,3.881-5.923c-0.011-0.259-0.057-0.494-0.101-0.729c2.583,3.462,7.212,5.995,13.793,6.026h0.179
		c5.733,0,10.497-1.862,14.696-3.503c4.265-1.645,17.123-9.024,20.892-14.146c1.109-0.844,1.7-1.811,2.089-3.4
		c0.177-0.711,0.131-1.446-0.136-2.192c4.145-2.156,7.948-4.54,11.605-7.272c2.011-1.507,3.491-2.903,4.52-4.271
		c0.613-0.491,1.327-1.225,1.619-1.615c0.43-0.585,0.826-1.521,0.9-2.061c0.189-0.662,0.178-1.356-0.027-2.077
		c1.284-0.674,2.565-1.358,3.872-2.09l5.115-3.385l1.487-1.158c1.578-1.207,2.3-1.759,4.715-4.084
		c0.412-0.369,0.718-0.729,1.005-1.187c0.935-0.803,1.482-1.76,1.809-3.158c0.349-1.424-0.087-2.946-1.135-3.973
		C467.068,276.753,465.623,276.313,464.114,276.668z M408.689,287.705c2.062,0.938,4.299,1.311,6.553,0.901
		c-0.228,2.103,0.078,4.113,0.902,5.939c-1.256-0.185-2.69-0.327-4.225-0.327c-1.241,0-2.308,0.123-3.266,0.295
		C409.063,292.402,409.074,290.125,408.689,287.705z M417.54,278.344c-0.612,0.904-1.387,1.505-2.306,1.785
		c-2.063,0.636-3.929,0.062-5.07-1.734c-2.173-3.422-1.565-9.513,1.619-16.294c0.589-1.247,1.546-2.964,2.595-4.678
		c0.482,3.3,1.465,6.404,2.289,9.009C418.43,272.026,419.415,275.595,417.54,278.344z M413.174,311.375
		c-3.213-0.017-6.341-1.313-7.276-3.015c-0.448-0.818-0.465-1.971-0.041-3.084c0.248-0.658,1.005-2.664,6.062-2.664
		c2.448,0,4.956,0.49,6.626,0.902c2.145,0.529,3.191,0.904,4.114,1.232c1.721,0.624,2.951,1.023,6.889,1.599
		c-6.115,3.34-11.577,5.029-16.268,5.029H413.174z M434.437,274.53c-1.15,0-3.398-2.515-3.398-3.29v-1.434
		c0-3.224,8.153-9.135,18.934-13.863c-1.594,3.333-3.384,6.783-4.223,8.095l-1.01,1.634c-0.431,0.704-0.848,1.392-1.415,2.178
		c-0.806,1.163-1.623,2.144-2.599,3.312C438.516,273.742,437.046,274.53,434.437,274.53z M431.41,294.398
		c-3.278-0.017-6.169-1.136-7.356-2.844c-0.646-0.936-0.724-1.985-0.246-3.294c0.192-0.516,0.915-1.336,1.877-1.837
		c1.221-0.639,2.59-0.948,4.192-0.948c2.854,0,6.095,0.948,9.525,1.952c2.503,0.736,5.069,1.488,7.92,1.964
		c-4.968,2.616-10.474,5.007-15.833,5.007H431.41z M399.366,295.485c-0.862,1.227-2.127,1.932-3.463,1.932
		c-1.757,0-3.372-1.23-4.433-3.377c-2.391-4.84,1.132-13.558,4.944-19.678c0.573,4.078,1.941,7.934,3.174,11.406
		C401.52,291.219,400.28,294.195,399.366,295.485z M398.369,312.073c-1.687-0.318-3.202-0.474-4.584-0.474
		c-1.28,0-2.536,0.128-3.801,0.389c0.427-2.388,0.379-5.033-0.147-7.903c2.368,1.402,4.97,1.964,7.605,1.615
		C397.154,308.107,397.462,310.244,398.369,312.073z M393.785,319.996c1.858,0,3.964,0.353,6.246,1.046l2.624,0.824
		c2.809,0.89,5.328,1.687,8.196,2.092c-1.838,1.003-3.446,1.779-4.676,2.254c-3.427,1.334-6.974,2.715-11.111,2.715h-0.143
		c-5.4-0.026-7.855-2.477-7.847-4.747C387.078,322.096,389.156,319.996,393.785,319.996z M373.135,311.981
		c-1.139-2.315-1.108-6.377,0.08-10.355c0.722-2.431,2.426-5.926,4.681-9.647c0.479,3.073,1.422,5.871,2.215,8.228
		c0.354,1.057,0.694,2.067,0.981,3.053c1.28,4.452,1.152,8.014-0.366,10.027c-1.024,1.37-2.432,1.574-3.182,1.574
		C376.097,314.86,374.178,314.104,373.135,311.981z M357.414,343.093c-0.11,0.086-0.25,0.203-0.443,0.368
		c-0.026-0.021-0.051-0.044-0.075-0.067c1.818-2.256,4.402-5.181,6.71-7.792l0.564-0.644c1.443-1.637,2.849-3.233,4.068-4.662
		c0.399,0.511,0.894,1.062,1.52,1.601c0.224,0.192,0.49,0.399,0.804,0.629c-2.195,1.684-4.772,3.777-7.437,5.955
		c-2.043,1.671-4.038,3.298-5.713,4.61L357.414,343.093z M377.093,326.786c-0.599-0.366-1.416-0.867-1.858-1.25
		c-0.365-0.311-0.665-0.785-1.053-1.4c-0.326-0.517-0.709-1.132-1.22-1.748c1.445,0.541,2.983,0.86,4.586,0.86
		c0.405,0,0.804-0.03,1.18-0.072c-0.032,0.332-0.047,0.66-0.047,0.982c-0.004,1.494,0.301,2.991,0.88,4.416
		C378.816,327.857,377.92,327.294,377.093,326.786z"/>
</g>
</svg>
